challenge04-solution – hans-hackathon
…
1.2.4 Pivotieren aller Spalten

In das Langformat bringen wir alle Spalten, die nicht idVisit heißen.

d_long <-
  d |> 
  mutate(across(everything(), as.character)) |> 
  pivot_longer(-idVisit)

Check:

tail(d_long, n = 100)
## # A tibble: 100 × 3
##    idVisit name                        value
##    <chr>   <chr>                       <chr>
##  1 2474    actionDetails_400_timestamp <NA> 
##  2 2474    actionDetails_401_timestamp <NA> 
##  3 2474    actionDetails_402_timestamp <NA> 
##  4 2474    actionDetails_403_timestamp <NA> 
##  5 2474    actionDetails_404_timestamp <NA> 
##  6 2474    actionDetails_405_timestamp <NA> 
##  7 2474    actionDetails_406_timestamp <NA> 
##  8 2474    actionDetails_407_timestamp <NA> 
##  9 2474    actionDetails_408_timestamp <NA> 
## 10 2474    actionDetails_409_timestamp <NA> 
## # ℹ 90 more rows
…
